{
    "parents.title": "Для бацькоў",
    "parents.intro": "Scratch - гэта мова праграмавання і анлайн суполка, дзе дзеці могуць праграмаваць\n і дзяліцца інтэрактыўнымі медыя, такімі як гульні, анімацыі, мульты \nз людзьмі з усяго свету. Дзеці, ствараючы у асяроддзі Scratch, \nвучацца думаць творча, працаваць разам і разважаць лагічна.\n Scratch распрацаваны і падтрымліваецца \nLifelong Kindergarten group у MIT Media Lab.",
    "parents.overview": "Як гэта працуе",
    "parents.faq": "Частыя пытанні (FAQ)",
    "parents.overviewTitle": "Як Scratch працуе для дзяцей?",
    "parents.overviewLearningTitle": "Навучанне",
    "parents.overviewLearningBody": "For a one-page overview of what young people learn with Scratch, see {learningWithScratch}.\nRead an article on the {creativeLearningApproach}.",
    "parents.learningWithScratchLinkText": "Навучанне са Scratch",
    "parents.creativeLearningApproachLinkText": "Творчы падыход да навучання",
    "parents.overviewCommunityTitle": "Суполка",
    "parents.overviewCommunityBody": "Мы просім усіх удзельнікаў сайта прытрымлівацца {communityGuidelines}.\nПрыватная інфармацыя профіляў не з'яўляецца даступнай усім . Больш падрабязна глядзіце {privacyPolicy}.",
    "parents.communityGuidelinesLinkText": "Правілы суполкі",
    "parents.privacyPolicyLinkText": "Палітыка канфідэнцыяльнасці",
    "parents.faqMoreAndAsk": "Каб даведацца больш пра Scratch, калі ласка, глядзіце {faqPage}.\nВы таксама можаце задаць пытанні на {discussionForums}.\nКалі вам трэба звязацца з нашай камандай напрамкі, націсніце {contactUs} знізу любой старонкі.",
    "parents.faqLinkText": "Частыя пытанні",
    "parents.faqDiscussionForumsLinkText": "Форумы",
    "parents.faqContactUsLinkText": "Звязацца з намі",
    "parents.faqAgeRangeTitle": "На які ўзрост разлічаны Scratch?",
    "parents.faqAgeRangeBody": "Scratch is designed especially for young people ages 8 to 16, but people of all ages create and share with Scratch. Younger children may want to try {scratchJr}, a simplified version of Scratch designed for ages 5 to 7.",
    "parents.faqResourcesTitle": "Якія рэсурсы даступны, каб вывучыць Scratch?",
    "parents.faqResourcesBody": "If you’re just getting started, there’s a {stepByStepGuide} available inside Scratch. For an overview of Scratch resources, see the {ideasPage} page.",
    "parents.faqIdeasLinkText": "Ідэі",
    "parents.faqStepByStepGuideLinkText": "step-by-step guide",
    "parents.faqGettingStartedGuideLinkText": "\"З чаго пачаць\" дапаможнік (PDF)",
    "parents.faqScratchCardsLinkText": "Scratch Cards",
    "parents.faqTipsLinkText": "Парады",
    "parents.faqCommunityTitle": "Што такое анлайн суполка Scratch?",
    "parents.faqCommunityBody": "When participating in the Scratch online community, members can explore and experiment in an open learning community with other Scratch members from all backgrounds, ages, and interests. Members can share their work, get feedback, and learn from each other.",
    "parents.faqGuidelinesTitle": "What are the guidelines for the Scratch online community?",
    "parents.faqGuidelinesBody": "The MIT Scratch Team works with the community to maintain a friendly and respectful environment for people of all ages, races, ethnicities, religions, sexual orientations, and gender identities. You can help your child learn how to participate by reviewing the {communityGuidelines} together. Members are asked to comment constructively and to help keep the website friendly by reporting any content that does not follow the community guidelines. The Scratch Team works each day to manage activity on the site and respond to reports, with the help of tools such as the {CleanSpeak} profanity filter.",
    "parents.faqCommunityGuidelinesLinkText": "правілы суполкі",
    "parents.faqPrivacyPolicyTitle": "Якая ваша палітыка прыватнасці?",
    "parents.faqPrivacyPolicyBody": "To protect children's online privacy, we limit what we collect during the signup process, and what we make public on the website. We don't sell or rent account information to anyone. You can find out more about our {privacyPolicy} page.",
    "parents.faqFAQLinkText": "frequently asked questions page",
    "parents.faqOfflineTitle": "Is there a way to use Scratch without participating online?",
    "parents.faqOfflineBody": "Scratch Desktop рэдактар дазваляе ствараць Scratch праекты без злучэння з інтэрнэт. Вы можаце спампаваць {scratchDesktop} з сайта. Раней называўся як Scratch офлайн рэдактар.",
    "parents.faqScratchDesktop": "Scratch Desktop",
    "parents.faqOffline2LinkText": "Scratch 2.0 офлайн рэдактар",
    "parents.faqOffline14LinkText": "Scratch 1.4 офлайн рэдактар"
}