{
    "ideas.headerMessage": "Иаԥышәҵарц ишәҭахузеи?",
    "ideas.headerButtonMessage": "Иалышәх арҵага шәҟәы",
    "ideas.gettingStartedTitle": "Излалагатәу",
    "ideas.gettingStartedText": "New to Scratch? Try the Getting Started tutorial.",
    "ideas.tryIt": "Игәашәҭ!",
    "ideas.activityGuidesTitle": "Activity Guides",
    "ideas.activityGuidesText": "What do you want to make with Scratch? For each activity, you can try the Tutorial, download a set of Coding Cards, or view the Educator Guide.",
    "ideas.animateANameTitle": "Ахьӡ анимациа азура",
    "ideas.animateANameDescription": "Animate the letters of your name, initials, or favorite word.",
    "ideas.animateACharacterTitle": "Animate a Character",
    "ideas.animateACharacterDescription": "Bring characters to life with animation.",
    "ideas.makeMusicTitle": "Иаԥышәҵа амузыка",
    "ideas.makeMusicDescription": "Иалышәх амаругақәа, иацышәҵа абжьқәа нас шәрықәыӷәӷәа аклавишақәа амузыка арҳәаразы.",
    "ideas.createAStoryTitle": "Иаԥышәҵа џьара ҭоурыхк",
    "ideas.createAStoryDescription": "Иалышәх аперсонажқәа, иацышәҵа реиҿцәажәара нас аԥсы ҭашәҵ шәара шәажәабжь.",
    "ideas.chaseGameTitle": "Иаԥышәҵа аиԥхныҩлара иазку ахәмарра",
    "ideas.chaseGameDescription": "Make a game where you chase a character to score points.",
    "ideas.videoSensingTitle": "Авидео ахархәара",
    "ideas.videoSensingDescription": "Interact with a project using the Video Sensing extension.",
    "ideas.seeAllTutorials": "Ирыхәаԥштәуп арҵага шәҟәқәа зегьы",
    "ideas.cardsTitle": "Get the Entire Collection of Coding Cards",
    "ideas.cardsText": "With the Scratch Coding Cards, you can learn to create interactive games, stories, music, animations, and more!",
    "ideas.starterProjectsTitle": "Ахалагаратә проектқәа",
    "ideas.starterProjectsText": "You can play with Starter Projects and remix them to make your own creations.",
    "ideas.starterProjectsButton": "Explore Starter Projects",
    "ideas.tryTheTutorial": "Иԥышшәшәа ари арҵага шәҟәы",
    "ideas.codingCards": "Coding Cards",
    "ideas.educatorGuide": "Арҵаҩы изы анапхгара",
    "ideas.desktopEditorHeader": "Scratch Desktop аҭыгара",
    "ideas.desktopEditorBody": "To create projects without an Internet connection, you can <a href=\"/download\">download Scratch Desktop</a>.",
    "ideas.questionsHeader": "Азҵаарақәа",
    "ideas.questionsBody": "Азҵаарқәа шәзынхама? Шәахәаԥш <a href=\"/info/faq\">ЛЛИ</a> ма шәаҭаа  <a href=\"/discuss/7/\"> апрограммақәа раԥҵара иазку афорум</a>.",
    "ideas.cardsPurchase": "Иаахәатәуп, икьыԥхьу акарточкақәа реизга ",
    "ideas.MakeItFlyTitle": "Ишәырԥыр",
    "ideas.MakeItFlyDescription": "Анимациа рзыжәу Scratch ацгәы, иара убасгьы егьырҭ анагӡаҩцәа!",
    "ideas.RaceTitle": "Афиниш аҟынӡа шәнаӡа",
    "ideas.RaceDescription": "Иаԥышәҵа ахәмарра, аперсонажқәа ҩба ахьеиԥхныҩло.",
    "ideas.HideAndSeekTitle": "Аҽыҵәахра ахәмарра",
    "ideas.HideAndSeekDescription": "Иаԥышәҵа аҽӡара ахәмарра, аперсонажқәа анцәырҵуеи рҽанырҵәахуеи.",
    "ideas.FashionTitle": "Ахәмарра, амода абзиабаҩ",
    "ideas.FashionDescription": "Иаԥышәҵа ахәмарра, аперсонажқәа рымаҭәақәа ахьырыԥсахуа.",
    "ideas.PongTitle": "Атеннис маҷ",
    "ideas.PongDescription": "Иаԥышәҵа ахәмарра, ампыл аҭӡамц ианадԥо абжьы гарц, абаллқәа рыԥхьаӡареи егьырҭ аеффектқәеи шәхы иархәаны.",
    "ideas.DanceTitle": "Шәааи ҳкәашап",
    "ideas.DanceDescription": "Иаԥышәҵа анимациа зызу акәашарҭатә дәы, амузыкеи акәашарақәеи ацҵаны.",
    "ideas.CatchTitle": "Ахәмарра-ахьӡара",
    "ideas.CatchDescription": "Иаԥышәҵа ахәмарра, шәара иахьышәкуа ажәҩан аҟынтәи икаҳауа амаҭәарқәа.",
    "ideas.VirtualPetTitle": "Ивиртуалтәу аҩнытә ԥстәы",
    "ideas.VirtualPetDescription": "Иаԥышәҵа акрыфареи, аӡыжәреи ахәмарреи зылшо аинтерактивтә ԥстәык."
}